…
### Preprocessing

As a preprocessing step, I combined my data, encoded the columns with strings so that the model would have quantitative values to handle since those labels are important to my music taste. I also randomized the order of the rows to mix up the data since it was in order. That way, my training set would have songs that Spotify recommended.

``` r
completeData <- rbind(my_plist_df, testData)
completeData <- completeData[sample(nrow(completeData)),]
completeData$who <- as.factor(completeData$who)

completeData
```

    ## # A tibble: 713 x 14
    ##    artist.name track.album.name track.name danceability energy loudness
    ##    <chr>       <chr>            <chr>             <dbl>  <dbl>    <dbl>
    ##  1 Demi Lovato Demi             Heart Att~        0.504  0.785    -4.80
    ##  2 The Ocean   Heliocentric     The Origi~        0.582  0.89     -5.36
    ##  3 The Ocean   Heliocentric     The Origi~        0.582  0.89     -5.36
    ##  4 Devin Town~ Empath           Genesis           0.536  0.841    -9.34
    ##  5 Radiohead   A Moon Shaped P~ Ful Stop          0.426  0.661    -9.88
    ##  6 Daft Punk   Homework         Teachers          0.98   0.486    -7.31
    ##  7 The Ocean   Heliocentric     Catharsis~        0.596  0.492    -8.29
    ##  8 Between Th~ Future Sequence~ The Black~        0.404  0.552    -5.85
    ##  9 Radiohead   OK Computer      Climbing ~        0.172  0.655    -7.48
    ## 10 ISIS        Oceanic (Remast~ Carry             0.272  0.711    -4.84
    ## # ... with 703 more rows, and 8 more variables: speechiness <dbl>,
    ## #   acousticness <dbl>, instrumentalness <dbl>, liveness <dbl>, valence <dbl>,
    ## #   tempo <dbl>, duration_ms <int>, who <fct>
…
